{
  "news": [
    {
      "description": "100 Crore Jabs Achievement LIVE Updates:  The top five states which have administered the highest number of doses are Uttar Pradesh followed by Maharashtra, West Bengal, Gujarat and Madhya Pradesh.",
      "url": "https://www.moneycontrol.com/news/india/100-crore-covid-vaccination-live-updates-7606691.html",
      "id": 1
    },
    {
      "description": "100 Crore Jabs Achievement LIVE Updates:  The top five states which have administered the highest number of doses are Uttar Pradesh followed by Maharashtra, West Bengal, Gujarat and Madhya Pradesh.",
      "url": "https://www.moneycontrol.com/news/india/100-crore-covid-vaccination-live-updates-7606691.html",
      "id": 2
    }
  ]
}